2017-06-11 16:10:21 EEST LOG:  database system was shut down at 2017-06-11 16:10:06 EEST
2017-06-11 16:10:21 EEST LOG:  MultiXact member wraparound protections are now enabled
2017-06-11 16:10:21 EEST LOG:  database system is ready to accept connections
2017-06-11 16:10:21 EEST LOG:  autovacuum launcher started
2017-06-11 16:18:34 EEST LOG:  could not receive data from client: An existing connection was forcibly closed by the remote host.
	
2017-06-11 16:19:51 EEST LOG:  could not receive data from client: An existing connection was forcibly closed by the remote host.
	
2017-06-11 16:19:51 EEST LOG:  could not receive data from client: An existing connection was forcibly closed by the remote host.
	
2017-06-11 16:19:51 EEST LOG:  could not receive data from client: An existing connection was forcibly closed by the remote host.
	
2017-06-11 16:19:51 EEST LOG:  could not receive data from client: An existing connection was forcibly closed by the remote host.
	
2017-06-11 16:20:52 EEST LOG:  could not receive data from client: An existing connection was forcibly closed by the remote host.
	
2017-06-11 16:20:52 EEST LOG:  could not receive data from client: An existing connection was forcibly closed by the remote host.
	
2017-06-11 16:20:52 EEST LOG:  could not receive data from client: An existing connection was forcibly closed by the remote host.
	
2017-06-11 16:20:52 EEST LOG:  could not receive data from client: An existing connection was forcibly closed by the remote host.
	
2017-06-11 16:20:52 EEST LOG:  could not receive data from client: An existing connection was forcibly closed by the remote host.
	
2017-06-11 21:42:56 EEST LOG:  could not receive data from client: An existing connection was forcibly closed by the remote host.
	
2017-06-11 21:42:56 EEST LOG:  could not receive data from client: An existing connection was forcibly closed by the remote host.
	
2017-06-11 21:42:56 EEST LOG:  could not receive data from client: An existing connection was forcibly closed by the remote host.
	
2017-06-11 21:42:56 EEST LOG:  could not receive data from client: An existing connection was forcibly closed by the remote host.
	
2017-06-11 21:42:56 EEST LOG:  could not receive data from client: An existing connection was forcibly closed by the remote host.
	
2017-06-11 21:42:56 EEST LOG:  could not receive data from client: An existing connection was forcibly closed by the remote host.
	
2017-06-11 21:42:56 EEST LOG:  could not receive data from client: An existing connection was forcibly closed by the remote host.
	
2017-06-11 21:42:56 EEST LOG:  could not receive data from client: An existing connection was forcibly closed by the remote host.
	
2017-06-11 21:42:58 EEST LOG:  could not receive data from client: An existing connection was forcibly closed by the remote host.
	
2017-06-11 21:42:58 EEST LOG:  could not receive data from client: An existing connection was forcibly closed by the remote host.
	
2017-06-11 22:19:12 EEST LOG:  received fast shutdown request
2017-06-11 22:19:12 EEST LOG:  aborting any active transactions
2017-06-11 22:19:12 EEST LOG:  autovacuum launcher shutting down
2017-06-11 22:19:12 EEST LOG:  shutting down
2017-06-11 22:19:12 EEST LOG:  database system is shut down
