2017-07-10 22:48:43 EEST LOG:  database system was shut down at 2017-07-10 22:48:29 EEST
2017-07-10 22:48:43 EEST LOG:  MultiXact member wraparound protections are now enabled
2017-07-10 22:48:43 EEST LOG:  database system is ready to accept connections
2017-07-10 22:48:43 EEST LOG:  autovacuum launcher started
